Tidyeval
…
```r
#Triple Bang (splycing) is used for lists of quoted arguments
starwars %>%
  select(!!!cols)
```

```
## # A tibble: 87 x 2
##    height  mass
##     <int> <dbl>
##  1    172    77
##  2    167    75
##  3     96    32
##  4    202   136
##  5    150    49
##  6    178   120
##  7    165    75
##  8     97    32
##  9    183    84
## 10    182    77
## # ... with 77 more rows
```
…
