tsibble and fable
…
- `time_hour` containing the date-times should be declared as **index**

- `origin` should be declared as **key**. 

- Other columns can be considered as measured variables. 

```r
weather <- nycflights13::weather %>% 
  select(origin, time_hour, temp, humid, precip)

weather
```

```
*## # A tibble: 26,115 x 5
*##    origin time_hour            temp humid precip
##    <chr>  <dttm>              <dbl> <dbl>  <dbl>
##  1 EWR    2013-01-01 01:00:00  39.0  59.4      0
##  2 EWR    2013-01-01 02:00:00  39.0  61.6      0
##  3 EWR    2013-01-01 03:00:00  39.0  64.4      0
##  4 EWR    2013-01-01 04:00:00  39.9  62.2      0
##  5 EWR    2013-01-01 05:00:00  39.0  64.4      0
##  6 EWR    2013-01-01 06:00:00  37.9  67.2      0
##  7 EWR    2013-01-01 07:00:00  39.0  64.4      0
##  8 EWR    2013-01-01 08:00:00  39.9  62.2      0
##  9 EWR    2013-01-01 09:00:00  39.9  62.2      0
## 10 EWR    2013-01-01 10:00:00  41    59.6      0
## # … with 26,105 more rows
```
…
- `time_hour` containing the date-times should be declared as **index**

- `origin` should be declared as **key**. 

- Other columns can be considered as measured variables. 

```r
weather_tsbl <- as_tsibble(weather, 
*                          key = origin,
*                          index = time_hour)
weather_tsbl
```

```
*## # A tsibble: 26,115 x 5 [1h] <America/New_York>
*## # Key:       origin [3]
##    origin time_hour            temp humid precip
##    <chr>  <dttm>              <dbl> <dbl>  <dbl>
##  1 EWR    2013-01-01 01:00:00  39.0  59.4      0
##  2 EWR    2013-01-01 02:00:00  39.0  61.6      0
##  3 EWR    2013-01-01 03:00:00  39.0  64.4      0
##  4 EWR    2013-01-01 04:00:00  39.9  62.2      0
##  5 EWR    2013-01-01 05:00:00  39.0  64.4      0
##  6 EWR    2013-01-01 06:00:00  37.9  67.2      0
##  7 EWR    2013-01-01 07:00:00  39.0  64.4      0
##  8 EWR    2013-01-01 08:00:00  39.9  62.2      0
##  9 EWR    2013-01-01 09:00:00  39.9  62.2      0
## 10 EWR    2013-01-01 10:00:00  41    59.6      0
## # … with 26,105 more rows
```
…
- `fill_gaps()` also handles filling in time gaps by values or functions, and respects time zones for date-times.

```r
full_weather <- weather_tsbl %>%
* fill_gaps(precip = 0) %>%
#filling gaps in precip with 0
  group_by_key() %>% 
  tidyr::fill(temp, humid, .direction = "down") 
#replaces NAs with its previous observation for each origin (key)

full_weather
```

```
*## # A tsibble: 26,190 x 5 [1h] <America/New_York>
*## # Key:       origin [3]
*## # Groups:    origin [3]
##    origin time_hour            temp humid precip
##    <chr>  <dttm>              <dbl> <dbl>  <dbl>
##  1 EWR    2013-01-01 01:00:00  39.0  59.4      0
##  2 EWR    2013-01-01 02:00:00  39.0  61.6      0
##  3 EWR    2013-01-01 03:00:00  39.0  64.4      0
##  4 EWR    2013-01-01 04:00:00  39.9  62.2      0
##  5 EWR    2013-01-01 05:00:00  39.0  64.4      0
##  6 EWR    2013-01-01 06:00:00  37.9  67.2      0
##  7 EWR    2013-01-01 07:00:00  39.0  64.4      0
##  8 EWR    2013-01-01 08:00:00  39.9  62.2      0
##  9 EWR    2013-01-01 09:00:00  39.9  62.2      0
## 10 EWR    2013-01-01 10:00:00  41    59.6      0
## # … with 26,180 more rows
```
…
  - While collapsing rows (by `summarise()`), `group_by()` and `index_by()` take care of updating the key and index respectively.

```r
full_weather %>%
  group_by_key() %>%
  index_by(year_month = ~ yearmonth(.)) %>% # monthly aggregates
  summarise(
    avg_temp = mean(temp, na.rm = TRUE),
    ttl_precip = sum(precip, na.rm = TRUE)
  )
```

```
## # A tsibble: 36 x 4 [1M]
## # Key:       origin [3]
*##    origin year_month avg_temp ttl_precip
*##    <chr>       <mth>    <dbl>      <dbl>
##  1 EWR      2013 Jan     35.6       3.53
##  2 EWR      2013 Feb     34.2       3.83
##  3 EWR      2013 Mar     40.1       3   
##  4 EWR      2013 Apr     53.0       1.47
##  5 EWR      2013 May     63.3       5.44
##  6 EWR      2013 Jun     73.3       8.73
##  7 EWR      2013 Jul     80.7       3.74
##  8 EWR      2013 Aug     74.5       4.57
##  9 EWR      2013 Sep     67.3       1.54
## 10 EWR      2013 Oct     59.7       0.5 
## # … with 26 more rows
```
…
